 2003-04-21	2
 2003-06-16	1
 2003-12-15	1
 2004-01-19	3
 2004-02-16	2
 2004-04-19	4
 2004-05-10	1
 2004-05-31	1
 2004-06-14	1
 2004-07-05	2
 2004-08-02	1
 2004-08-16	1
 2004-09-06	1
 2004-10-04	7
 2004-10-11	1
 2004-10-25	3
 2004-11-15	3
 2004-12-27	2
 2005-01-17	1
 2005-03-28	2
 2005-04-25	4
 2005-05-09	4
 2005-05-16	2
 2005-05-30	2
 2005-06-06	2
 2005-06-13	1
 2005-06-20	2
 2005-06-27	2
 2005-07-04	2
 2005-08-29	1
 2005-10-03	3
 2005-12-05	2
 2006-01-09	6
 2006-01-16	1
 2006-01-23	1
 2006-02-13	2
 2006-03-06	1
 2006-03-20	1
 2006-03-27	1
 2006-04-24	1
 2006-05-29	1
 2006-07-10	1
 2006-07-24	1
 2006-07-31	2
 2006-08-14	1
 2006-09-18	2
 2006-09-25	1
 2006-10-02	2
 2006-10-16	1
 2006-10-23	2
 2006-11-13	2
 2006-11-27	2
 2006-12-04	1
 2007-01-15	2
 2007-01-29	4
 2007-03-19	1
 2007-06-11	5
 2007-07-09	3
 2007-09-03	4
 2007-09-10	4
 2007-10-08	1
 2007-12-03	1
 2008-01-28	1
 2008-02-11	2
 2008-03-03	1
 2008-03-10	2
 2008-03-24	4
 2008-04-07	2
 2008-04-21	1
 2008-05-26	2
 2008-06-23	1
 2008-06-30	1
 2008-07-14	2
 2008-08-04	4
 2008-08-11	1
 2008-08-18	1
 2008-09-15	1
 2008-10-20	1
 2008-11-24	2
 2009-01-12	2
 2009-02-16	1
 2009-03-02	7
 2009-03-09	2
 2009-03-16	6
 2009-03-23	2
 2009-03-30	2
 2009-04-20	3
 2009-04-27	2
 2009-05-18	5
 2009-05-25	1
 2009-06-01	1
 2009-06-22	1
 2009-07-06	2
 2009-07-20	1
 2009-07-27	1
 2009-08-03	1
 2009-08-24	2
 2009-08-31	2
 2009-09-07	1
 2009-10-05	1
 2009-10-19	4
 2009-10-26	11
 2009-11-02	1
 2009-11-16	4
 2009-11-23	3
 2009-11-30	3
 2009-12-21	1
 2010-01-04	1
 2010-01-11	1
 2010-01-18	2
 2010-01-25	3
 2010-02-01	2
 2010-02-08	3
 2010-02-15	1
 2010-03-08	2
 2010-03-15	1
 2010-03-22	1
 2010-03-29	6
 2010-04-05	1
 2010-04-12	4
 2010-05-10	1
 2010-05-17	10
 2010-05-31	6
 2010-06-21	2
 2010-07-05	3
 2010-07-26	2
 2010-08-02	3
 2010-11-15	1
 2010-11-22	11
 2010-11-29	1
 2011-01-10	3
 2011-01-17	4
 2011-01-24	3
 2011-01-31	2
 2011-02-14	1
 2011-02-28	1
 2011-03-07	2
 2011-03-21	2
 2011-03-28	3
 2011-05-02	2
 2011-05-09	1
 2011-05-23	1
 2011-05-30	2
 2011-06-06	1
 2011-06-20	1
 2011-06-27	1
 2011-07-04	3
 2011-07-18	2
 2011-07-25	1
 2011-08-01	1
 2011-08-08	1
 2011-08-29	1
 2011-10-17	10
 2011-10-24	6
 2011-10-31	6
 2011-11-14	1
 2011-11-21	2
 2011-12-12	2
 2012-01-02	1
 2012-01-09	1
 2012-01-30	1
 2012-02-06	5
 2012-02-13	3
 2012-02-20	3
 2012-02-27	2
 2012-03-05	2
 2012-03-12	2
 2012-03-19	6
 2012-03-26	4
 2012-04-02	2
 2012-04-09	2
 2012-04-16	1
 2012-04-30	1
 2012-05-14	4
 2012-05-28	1
 2012-06-04	1
 2012-06-25	1
 2012-08-06	1
 2012-09-17	1
 2012-12-03	2
 2012-12-10	1
 2013-01-28	2
 2013-04-01	18
 2013-04-08	5
 2013-04-15	11
 2013-04-22	5
 2013-04-29	8
 2013-05-06	1
 2013-05-13	15
 2013-05-20	3
 2013-05-27	2
 2013-06-24	3
 2013-07-22	1
 2013-07-29	1
 2013-08-05	6
 2013-08-26	4
 2013-09-02	7
 2013-09-09	1
 2013-09-16	6
 2013-10-14	1
 2013-10-21	2
 2013-10-28	3
 2013-11-04	2
 2013-11-25	7
 2013-12-02	4
 2013-12-23	11
 2013-12-30	5
 2014-01-06	1
 2014-01-13	6
 2014-01-20	1
 2014-01-27	3
 2014-02-10	1
 2014-02-17	4
 2014-02-24	8
 2014-03-03	2
 2014-03-10	1
 2014-03-17	1
 2014-03-24	1
 2014-04-07	1
 2014-04-14	3
 2014-05-05	2
 2014-05-12	1
 2014-05-19	3
 2014-05-26	1
 2014-06-02	8
 2014-06-09	14
 2014-06-16	27
 2014-06-23	23
 2014-06-30	3
 2014-07-07	5
 2014-07-21	7
 2014-07-28	5
 2014-08-04	19
 2014-08-11	9
 2014-08-18	2
 2014-08-25	6
 2014-09-01	1
 2014-09-15	8
 2014-09-22	3
 2014-09-29	12
 2014-10-06	4
 2014-10-13	16
 2014-10-20	25
 2014-11-10	4
 2014-11-24	1
 2014-12-08	3
 2014-12-29	1
 2015-03-02	3
 2015-04-06	1
 2015-04-13	2
 2015-04-20	3
 2015-04-27	5
 2015-05-04	13
 2015-05-11	6
 2015-05-25	7
 2015-06-01	3
 2015-06-08	2
 2015-06-15	3
 2015-06-22	23
 2015-06-29	8
 2015-07-06	2
 2015-07-13	21
 2015-07-20	5
 2015-07-27	9
 2015-08-03	4
 2015-08-10	4
 2015-08-17	1
 2015-08-24	1
 2015-08-31	7
 2015-09-07	7
 2015-09-14	3
 2015-09-21	16
 2015-09-28	4
 2015-10-05	3
 2015-10-26	23
 2015-11-02	26
 2015-11-09	8
 2015-11-16	1
 2015-11-23	1
 2015-11-30	3
 2015-12-07	2
 2015-12-14	11
 2015-12-28	1
 2016-01-04	4
 2016-01-11	7
 2016-01-18	4
 2016-01-25	2
 2016-02-01	3
 2016-02-08	4
 2016-02-15	8
 2016-02-22	7
 2016-02-29	2
 2016-03-21	22
 2016-03-28	5
 2016-04-04	5
 2016-04-11	5
 2016-04-18	8
 2016-04-25	52
 2016-05-02	32
 2016-05-09	13
 2016-05-16	14
 2016-05-23	3
 2016-05-30	2
 2016-06-06	5
 2016-06-13	2
 2016-06-20	10
 2016-06-27	24
 2016-07-04	16
 2016-07-11	2
 2016-07-18	6
 2016-07-25	8
 2016-08-08	4
 2016-08-15	9
 2016-08-22	5
 2016-08-29	2
 2016-09-05	11
 2016-09-12	1
 2016-09-19	2
 2016-10-10	1
 2016-10-17	3
 2016-10-24	60
 2016-10-31	20
 2016-11-07	49
 2016-11-14	29
 2016-11-21	7
 2016-11-28	36
 2016-12-05	20
 2016-12-12	19
 2016-12-19	16
 2016-12-26	1
 2017-01-02	19
 2017-01-09	24
 2017-01-16	7
 2017-01-23	6
 2017-02-06	1
 2017-02-13	3
 2017-02-20	1
 2017-03-27	1
 2017-04-03	4
 2017-04-10	2
 2017-04-17	1
 2017-04-24	1
 2017-05-08	5
 2017-05-15	5
 2017-05-22	5
 2017-05-29	3
 2017-06-05	11
 2017-06-12	2
 2017-06-19	3
 2017-06-26	3
 2017-07-03	1
 2017-07-10	1
 2017-07-17	1
 2017-07-24	1
 2017-08-07	1
 2017-08-21	20
 2017-08-28	8
 2017-09-04	44
 2017-09-11	6
 2017-09-18	11
 2017-09-25	111
 2017-10-02	62
 2017-10-09	32
 2017-10-16	45
 2017-10-23	21
 2017-10-30	12
 2017-11-06	82
 2017-11-13	17
 2017-11-20	18
 2017-11-27	26
 2017-12-04	7
 2017-12-11	2
 2017-12-18	8
 2018-01-01	2
 2018-01-08	6
 2018-01-15	17
 2018-01-22	2
 2018-01-29	4
 2018-02-05	3
 2018-02-19	41
 2018-02-26	22
 2018-03-05	27
 2018-03-12	63
 2018-03-19	36
 2018-03-26	11
 2018-04-02	21
 2018-04-09	9
 2018-04-16	8
 2018-04-23	12
 2018-04-30	124
 2018-05-07	27
 2018-05-14	24
 2018-05-21	25
 2018-05-28	216
 2018-06-04	125
 2018-06-11	60
 2018-06-18	81
 2018-06-25	8
 2018-07-02	11
 2018-07-09	28
 2018-07-16	13
 2018-07-23	12
 2018-07-30	29
 2018-08-06	14
 2018-08-13	24
 2018-08-20	12
 2018-08-27	9
 2018-09-03	29
 2018-09-10	36
 2018-09-17	21
 2018-09-24	23
 2018-10-01	30
 2018-10-08	18
 2018-10-15	9
 2018-10-22	20
 2018-10-29	15
 2018-11-05	65
 2018-11-12	32
 2018-11-19	11
 2018-11-26	32
 2018-12-03	42
 2018-12-10	34
 2018-12-17	12
 2018-12-31	12
 2019-01-07	40
 2019-01-14	37
 2019-01-21	7
 2019-01-28	23
 2019-02-04	19
 2019-02-11	10
 2019-02-18	3
 2019-02-25	2
 2019-03-25	6
 2019-04-01	1
 2019-04-08	2
 2019-04-29	5
 2019-05-06	4
 2019-05-13	9
 2019-05-20	6
 2019-06-24	1
 2019-07-01	56
 2019-07-08	115
 2019-07-15	153
 2019-07-22	29
 2019-07-29	34
 2019-08-05	12
 2019-08-12	17
 2019-08-19	22
 2019-08-26	18
 2019-09-02	13
 2019-09-09	27
 2019-09-16	29
 2019-09-23	14
 2019-09-30	6
 2019-10-07	31
 2019-10-14	22
 2019-10-21	5
 2019-10-28	39
 2019-11-04	53
 2019-11-11	93
 2019-11-18	13
 2019-11-25	22
 2019-12-02	18
 2019-12-09	5
 2019-12-16	6
 2019-12-23	39
 2019-12-30	65
 2020-01-06	34
 2020-01-13	50
 2020-01-20	39
 2020-01-27	33
 2020-02-03	45
 2020-02-10	31
 2020-02-17	56
 2020-02-24	43
 2020-03-02	35
 2020-03-09	32
 2020-03-16	66
 2020-03-23	27
 2020-03-30	63
 2020-04-06	96
 2020-04-13	30
 2020-04-20	19
 2020-04-27	12
 2020-05-04	39
 2020-05-11	307
 2020-05-18	244
 2020-05-25	24
 2020-06-01	23
 2020-06-08	22
 2020-06-15	22
 2020-06-22	9
 2020-06-29	27
 2020-07-06	7
 2020-07-13	31
 2020-07-20	21
 2020-07-27	36
 2020-08-03	14
 2020-08-10	6
 2020-08-24	2
 2020-08-31	115
 2020-09-07	28
 2020-09-14	98
 2020-09-21	78
 2020-09-28	21
 2020-10-05	26
 2020-10-12	68
 2020-10-19	3
 2020-10-26	90
 2020-11-02	96
 2020-11-09	31
 2020-11-16	50
 2020-11-23	32
 2020-11-30	15
 2020-12-07	5
 2020-12-14	9
 2020-12-21	1
 2020-12-28	6
 2021-01-04	34
 2021-01-11	104
 2021-01-18	29
 2021-01-25	41
 2021-02-01	63
 2021-02-08	28
 2021-02-15	13
 2021-02-22	9
 2021-03-01	10
 2021-03-08	1
 2021-03-15	3
 2021-03-22	2
 2021-03-29	1
 2021-04-05	9
 2021-04-12	2
 2021-04-26	4
 2021-05-03	2
 2021-05-17	4
 2021-06-14	4
 2021-07-26	1
 2021-08-09	15
 2021-08-16	55
 2021-08-23	56
 2021-08-30	93
 2021-09-06	142
 2021-09-13	117
 2021-09-20	94
 2021-09-27	53
 2021-10-04	41
 2021-10-11	73
 2021-10-18	50
 2021-10-25	17
 2021-11-01	66
 2021-11-08	20
 2021-11-15	14
 2021-11-22	182
 2021-11-29	54
 2021-12-06	33
 2021-12-20	32
 2021-12-27	43
 2022-01-03	11
 2022-01-10	45
 2022-01-17	21
 2022-01-24	25
 2022-01-31	5
 2022-02-07	45
 2022-02-14	17
 2022-02-21	32
 2022-02-28	2
 2022-03-07	74
 2022-03-14	28
 2022-03-21	11
 2022-03-28	36
 2022-04-04	14
 2022-04-11	4
 2022-04-25	39
 2022-05-02	23
 2022-05-09	113
 2022-05-16	161
 2022-05-23	67
 2022-05-30	24
 2022-06-06	19
 2022-06-13	13
 2022-06-20	36
 2022-06-27	23
 2022-07-04	6
 2022-07-11	61
 2022-07-18	29
 2022-07-25	11
 2022-08-01	13
 2022-08-08	24
 2022-08-15	30
 2022-08-22	48
 2022-08-29	8
 2022-09-05	3
 2022-09-12	75
 2022-09-19	19
 2022-09-26	23
 2022-10-03	46
 2022-10-10	28
 2022-10-17	7
 2022-10-24	31
 2022-10-31	53
 2022-11-07	20
 2022-11-14	119
 2022-11-21	112
 2022-11-28	59
 2022-12-05	40
 2022-12-12	15
 2022-12-19	56
 2022-12-26	15
 2023-01-02	1
 2023-01-09	49
 2023-01-16	74
 2023-01-23	39
 2023-01-30	46
 2023-02-06	22
 2023-02-20	47
 2023-02-27	12
 2023-03-06	2
 2023-03-13	1
 2023-03-20	1
 2023-05-15	2
 2023-05-22	3
 2023-06-05	18
 2023-06-12	46
 2023-06-19	56
 2023-06-26	156
 2023-07-03	45
 2023-07-10	1
 2023-07-17	133
 2023-07-24	93
 2023-07-31	7
 2023-08-07	5
 2023-08-14	43
 2023-08-21	24
 2023-08-28	46
 2023-09-04	25
 2023-09-11	23
 2023-09-18	13
 2023-09-25	8
 2023-10-09	56
 2023-10-16	50
 2023-10-23	61
 2023-10-30	8
 2023-11-06	14
 2023-11-13	11
 2023-11-20	65
 2023-11-27	170
 2023-12-04	11
 2023-12-11	7
 2023-12-18	80
 2023-12-25	1
 2024-01-01	5
 2024-01-08	87
 2024-01-15	40
 2024-01-22	20
 2024-01-29	42
 2024-02-05	15
 2024-02-12	40
 2024-02-19	5
 2024-02-26	2
 2024-03-04	10
 2024-03-11	8
 2024-03-18	2
 2024-03-25	5
 2024-04-01	6
 2024-04-08	4
 2024-04-15	13
 2024-04-22	17
 2024-04-29	2
 2024-05-06	22
 2024-05-13	15
 2024-05-20	9
 2024-05-27	9
 2024-06-03	17
 2024-06-10	29
 2024-06-17	19
 2024-06-24	15
 2024-07-01	10
 2024-07-08	185
 2024-07-15	37
 2024-07-22	79
 2024-07-29	47
 2024-08-05	56
 2024-08-12	198
 2024-08-19	3
 2024-08-26	8
 2024-09-02	63
 2024-09-09	24
 2024-09-16	11
 2024-09-23	16
 2024-09-30	48
 2024-10-07	57
 2024-10-14	5
 2024-10-21	1
 2024-10-28	15
 2024-11-04	8
